<svg xmlns="http://www.w3.org/2000/svg" width="132" height="132" viewBox="0 0 132 132">
  <path fill="rgba(238, 238, 238, 0.45)" fill-rule="evenodd" d="M81.6025226,14.0007794 L117.999221,50.3974774 C136.666926,69.0651833 136.666926,99.3315147 117.999221,117.999221 C99.3315147,136.666926 69.0651833,136.666926 50.3974774,117.999221 L14.0007794,81.6025226 C-4.66692648,62.9348167 -4.66692648,32.6684853 14.0007794,14.0007794 C32.6684853,-4.66692648 62.9348167,-4.66692648 81.6025226,14.0007794 Z"/>
</svg>
