<svg xmlns="http://www.w3.org/2000/svg" width="371" height="371" viewBox="0 0 371 371">
  <linearGradient xmlns="http://www.w3.org/2000/svg" id="SVGID_1_" gradientUnits="userSpaceOnUse" x1="-5.960464e-08" y1="185.2733" x2="370.5465" y2="185.2733">
	<stop offset="5.641026e-02" style="stop-color:#FF403F"/>
	<stop offset="0.2063" style="stop-color:#DD4458"/>
	<stop offset="0.5384" style="stop-color:#874D97"/>
	<stop offset="0.9436" style="stop-color:#1759E9"/>
</linearGradient>
  <path fill="url(#SVGID_1_)" fill-rule="evenodd" d="M7.61078518,166.895209 L166.895209,7.61078518 C177.042923,-2.53692839 193.495617,-2.53692839 203.643331,7.61078518 L362.935748,166.903202 C373.083461,177.050916 373.083461,193.50361 362.935748,203.651324 L203.651324,362.935748 C193.50361,373.083461 177.050916,373.083461 166.903202,362.935748 L7.61078518,203.643331 C-2.53692839,193.495617 -2.53692839,177.042923 7.61078518,166.895209 Z"/>
</svg>
